<svg width="23" height="23" viewBox="0 0 23 23" version="1.1" xmlns="http://www.w3.org/2000/svg" xmlns:xlink="http://www.w3.org/1999/xlink" xmlns:figma="http://www.figma.com/figma/ns">
<title>APPclose</title>
<desc>Created using Figma</desc>
<g id="Canvas" transform="translate(698 957)" figma:type="canvas">
<g id="APPclose" style="mix-blend-mode:normal;" figma:type="instance">
<g id="icon" style="mix-blend-mode:normal;" figma:type="frame">
<g id="Line 5" style="mix-blend-mode:normal;" figma:type="line">
<use xlink:href="#path0_stroke" transform="matrix(0.707107 0.707107 -0.707107 0.707107 -690.036 -948.328)" fill="#FFFFFF" style="mix-blend-mode:normal;"/>
</g>
<g id="Line 5" style="mix-blend-mode:normal;" figma:type="line">
<use xlink:href="#path0_stroke" transform="matrix(-0.707107 0.707107 -0.707107 -0.707107 -683.672 -949.036)" fill="#FFFFFF" style="mix-blend-mode:normal;"/>
</g>
</g>
</g>
</g>
<defs>
<path id="path0_stroke" d="M 0 0L 9 0L 9 -1L 0 -1L 0 0Z"/>
</defs>
</svg>
