<svg width="24" height="24" viewBox="0 0 24 24" version="1.1" xmlns="http://www.w3.org/2000/svg" xmlns:xlink="http://www.w3.org/1999/xlink" xmlns:figma="http://www.figma.com/figma/ns">
<title>MD-icon-settings</title>
<desc>Created using Figma</desc>
<g id="Canvas" transform="translate(608 985)" figma:type="canvas">
<g id="MD-icon-settings" style="mix-blend-mode:normal;" figma:type="instance">
<g id="Mask Group" style="mix-blend-mode:normal;" figma:type="frame">
<mask id="mask0_outline" mask-type="alpha">
<g id="Group" style="mix-blend-mode:normal;" figma:type="frame">
<g id="Ellipse" style="mix-blend-mode:normal;" figma:type="ellipse">
<use xlink:href="#path0_fill" transform="translate(-602.072 -979)" style="mix-blend-mode:normal;"/>
</g>
<g id="Rectangle 8" style="mix-blend-mode:normal;" figma:type="rounded-rectangle">
<use xlink:href="#path1_fill" transform="translate(-598.072 -981)" style="mix-blend-mode:normal;"/>
</g>
<g id="Rectangle 8" style="mix-blend-mode:normal;" figma:type="rounded-rectangle">
<use xlink:href="#path1_fill" transform="matrix(0.5 0.866025 -0.866025 0.5 -590.144 -978.732)" style="mix-blend-mode:normal;"/>
</g>
<g id="Rectangle 8" style="mix-blend-mode:normal;" figma:type="rounded-rectangle">
<use xlink:href="#path1_fill" transform="matrix(-0.5 0.866025 -0.866025 -0.5 -588.144 -970.732)" style="mix-blend-mode:normal;"/>
</g>
</g>
</mask>
<g id="Ellipse" style="mix-blend-mode:normal;" mask="url(#mask0_outline)" figma:type="ellipse">
<mask id="mask1_outline_out">
<rect id="mask1_outline_inv" fill="white" x="-6" y="-6" width="20" height="20" transform="translate(-600.072 -977)"/>
<use xlink:href="#path2_fill" fill="black" transform="translate(-600.072 -977)"/>
</mask>
<g mask="url(#mask1_outline_out)">
<use xlink:href="#path3_stroke_2x" transform="translate(-600.072 -977)" style="mix-blend-mode:normal;"/>
</g>
</g>
</g>
</g>
</g>
<defs>
<path id="path0_fill" d="M 12 6C 12 9.31371 9.31371 12 6 12C 2.68629 12 0 9.31371 0 6C 0 2.68629 2.68629 0 6 0C 9.31371 0 12 2.68629 12 6Z"/>
<path id="path1_fill" d="M 0 0L 4 0L 4 16L 0 16L 0 0Z"/>
<path id="path2_fill" d="M 8 4C 8 6.20914 6.20914 8 4 8C 1.79086 8 0 6.20914 0 4C 0 1.79086 1.79086 0 4 0C 6.20914 0 8 1.79086 8 4Z"/>
<path id="path3_stroke_2x" d="M 2 4C 2 2.89543 2.89543 2 4 2L 4 14C 9.52285 14 14 9.52285 14 4L 2 4ZM 4 2C 5.10457 2 6 2.89543 6 4L -6 4C -6 9.52285 -1.52285 14 4 14L 4 2ZM 6 4C 6 5.10457 5.10457 6 4 6L 4 -6C -1.52285 -6 -6 -1.52285 -6 4L 6 4ZM 4 6C 2.89543 6 2 5.10457 2 4L 14 4C 14 -1.52285 9.52285 -6 4 -6L 4 6Z"/>
</defs>
</svg>
