<?xml version="1.0" encoding="utf-8"?>
<!-- Generator: Adobe Illustrator 16.0.0, SVG Export Plug-In . SVG Version: 6.00 Build 0)  -->
<!DOCTYPE svg PUBLIC "-//W3C//DTD SVG 1.1//EN" "http://www.w3.org/Graphics/SVG/1.1/DTD/svg11.dtd">
<svg version="1.1" id="Layer_1" xmlns:figma="http://www.figma.com/figma/ns"
	 xmlns="http://www.w3.org/2000/svg" xmlns:xlink="http://www.w3.org/1999/xlink" x="0px" y="0px" width="24px" height="24px"
	 viewBox="0 0 24 24" enable-background="new 0 0 24 24" xml:space="preserve">
<path d="M12,7.429C8.861,7.429,6.158,9.3,4.894,12c1.265,2.7,3.967,4.57,7.106,4.57c3.14,0,5.842-1.87,7.106-4.57
	C17.842,9.3,15.14,7.429,12,7.429z M12,14.285c-1.243,0-2.25-1.023-2.25-2.286S10.757,9.714,12,9.714c1.242,0,2.25,1.023,2.25,2.286
	S13.242,14.285,12,14.285z"/>
</svg>
