<?xml version="1.0" encoding="utf-8"?>
<!-- Generator: Adobe Illustrator 16.0.0, SVG Export Plug-In . SVG Version: 6.00 Build 0)  -->
<!DOCTYPE svg PUBLIC "-//W3C//DTD SVG 1.1//EN" "http://www.w3.org/Graphics/SVG/1.1/DTD/svg11.dtd">
<svg version="1.1" id="Layer_1"
	 xmlns="http://www.w3.org/2000/svg" x="0px" y="0px" width="25px" height="24px"
	 viewBox="0 0 25 24" enable-background="new 0 0 25 24">
<path fill="rgba(78, 165, 237, 1)" id="path0_stroke" d="M11.5,6v12h2V6H11.5z"/>
<path fill="rgba(78, 165, 237, 1)" id="path1_stroke" d="M15.5,8v8h2V8H15.5z"/>
<path fill="rgba(78, 165, 237, 1)" id="path1_stroke_1_" d="M19.5,8v8h2V8H19.5z"/>
<path fill="rgba(78, 165, 237, 1)" id="path1_stroke_2_" d="M3.5,8v8h2V8H3.5z"/>
<path fill="rgba(78, 165, 237, 1)" id="path1_stroke_3_" d="M7.5,8v8h2V8H7.5z"/>
</svg>
